FPS 24
file0000.png
file0001.png
file0002.png
file0003.png
file0004.png
file0005.png
file0006.png
file0007.png
file0008.png
file0009.png
file0010.png
file0011.png
file0012.png
file0013.png
file0014.png
file0015.png
file0016.png
file0017.png
file0018.png
file0019.png
file0020.png
file0021.png
file0022.png
file0023.png
file0024.png
file0025.png
file0026.png
file0027.png
file0028.png
file0029.png
file0030.png
file0031.png
file0032.png
file0033.png
file0034.png
file0035.png
file0036.png
file0037.png
file0038.png
file0039.png
file0040.png
file0041.png
file0042.png
file0043.png
file0044.png
file0045.png
file0046.png
file0047.png
file0048.png
file0049.png
file0050.png
file0051.png
file0052.png
file0053.png
file0054.png
file0055.png
file0056.png
file0057.png
file0058.png
file0059.png
file0060.png
file0061.png
file0062.png
file0063.png
file0064.png
file0065.png
file0066.png
file0067.png
file0068.png
file0069.png
file0070.png
file0071.png
file0072.png
file0073.png
file0074.png
file0075.png
file0076.png
file0077.png
file0078.png
file0079.png
file0080.png
file0081.png
file0082.png
file0083.png
file0084.png
file0085.png
file0086.png
file0087.png
file0088.png
file0089.png
file0090.png
file0091.png
file0092.png
file0093.png
file0094.png
file0095.png
file0096.png
file0097.png
file0098.png
file0099.png
file0100.png
