FPS 24
file0000.png
file0001.png
file0002.png
file0003.png
file0004.png
file0005.png
file0006.png
file0007.png
file0008.png
file0009.png
file0010.png
file0011.png
file0012.png
file0013.png
file0014.png
file0015.png
file0016.png
file0017.png
file0018.png
file0019.png
file0020.png
file0021.png
file0022.png
file0023.png
file0024.png
file0025.png
file0026.png
file0027.png
file0028.png
file0029.png
file0030.png
file0031.png
file0032.png
file0033.png
file0034.png
file0035.png
file0036.png
file0037.png
file0038.png
file0039.png
file0040.png
file0041.png
file0042.png
file0043.png
file0044.png
file0045.png
file0046.png
file0047.png
file0048.png
file0049.png
file0050.png
file0051.png
file0052.png
file0053.png
file0054.png
file0055.png
file0056.png
file0057.png
file0058.png
file0059.png
file0060.png
file0061.png
file0062.png
file0063.png
file0064.png
file0065.png
file0066.png
file0067.png
file0068.png
file0069.png
file0070.png
file0071.png
file0072.png
file0073.png
file0074.png
file0075.png
file0076.png
file0077.png
file0078.png
file0079.png
file0080.png
file0081.png
file0082.png
file0083.png
file0084.png
file0085.png
file0086.png
file0087.png
file0088.png
file0089.png
file0090.png
file0091.png
file0092.png
file0093.png
file0094.png
file0095.png
file0096.png
file0097.png
file0098.png
file0099.png
file0100.png
file0101.png
file0102.png
file0103.png
file0104.png
file0105.png
file0106.png
file0107.png
file0108.png
file0109.png
file0110.png
file0111.png
file0112.png
file0113.png
file0114.png
file0115.png
file0116.png
file0117.png
file0118.png
file0119.png
file0120.png
file0121.png
file0122.png
file0123.png
file0124.png
file0125.png
file0126.png
file0127.png
file0128.png
file0129.png
file0130.png
file0131.png
file0132.png
file0133.png
file0134.png
file0135.png
file0136.png
file0137.png
file0138.png
file0139.png
file0140.png
file0141.png
file0142.png
file0143.png
file0144.png
file0145.png
file0146.png
file0147.png
file0148.png
file0149.png
file0150.png
file0151.png
file0152.png
file0153.png
file0154.png
file0155.png
file0156.png
file0157.png
file0158.png
file0159.png
file0160.png
file0161.png
file0162.png
file0163.png
file0164.png
file0165.png
file0166.png
file0167.png
file0168.png
file0169.png
file0170.png
file0171.png
file0172.png
file0173.png
file0174.png
file0175.png
file0176.png
file0177.png
file0178.png
file0179.png
file0180.png
file0181.png
file0182.png
file0183.png
file0184.png
file0185.png
file0186.png
file0187.png
file0188.png
file0189.png
file0190.png
file0191.png
file0192.png
file0193.png
file0194.png
file0195.png
file0196.png
file0197.png
file0198.png
file0199.png
file0200.png

